Fitting epicurves • incidence2plus
…
ra <- 
  grouped_dat %>% 
  add_rolling_average(before = 2) # group observations with the 2 prior
ra
#> # A tibble: 6 x 2
#>   hospital                                     rolling_average  
#>   <fct>                                        <list>           
#> 1 Connaught Hospital                           <tibble [24 × 3]>
#> 2 Military Hospital                            <tibble [24 × 3]>
#> 3 other                                        <tibble [23 × 3]>
#> 4 Princess Christian Maternity Hospital (PCMH) <tibble [23 × 3]>
#> 5 Rokupa Hospital                              <tibble [23 × 3]>
#> 6 <NA>                                         <tibble [23 × 3]>
ra %>% unnest(rolling_average)
#> # A tibble: 140 x 4
#>    hospital           bin_date   count rolling_average
#>    <fct>              <date>     <int>           <dbl>
#>  1 Connaught Hospital 2014-04-07     0          NA    
#>  2 Connaught Hospital 2014-04-14     1          NA    
#>  3 Connaught Hospital 2014-04-21     0           0.333
#>  4 Connaught Hospital 2014-04-28     1           0.667
#>  5 Connaught Hospital 2014-05-05     3           1.33 
#>  6 Connaught Hospital 2014-05-12     2           2.00 
#>  7 Connaught Hospital 2014-05-19     5           3.33 
#>  8 Connaught Hospital 2014-05-26     4           3.67 
#>  9 Connaught Hospital 2014-06-02     6           5    
#> 10 Connaught Hospital 2014-06-09     6           5.33 
#> # … with 130 more rows
…
