Peak estimation • incidence2plus
…
#> 
#>   date       count
#>   <date>     <int>
#> 1 2013-04-03     7
#> 
#> 
#> [[1]]$estimated
#> [1] "2013-04-05"
#> 
#> [[1]]$ci
#>         2.5%        97.5% 
#> "2013-03-29" "2013-04-15" 
#> 
#> [[1]]$peaks
#> # A tibble: 100 x 2
#>    date       count
#>    <date>     <int>
#>  1 2013-04-13    11
#>  2 2013-03-29    11
#>  3 2013-04-06     9
#>  4 2013-04-11    10
#>  5 2013-04-03    11
#>  6 2013-04-03     8
#>  7 2013-04-03     9
#>  8 2013-04-17    11
#>  9 2013-04-06    11
#> 10 2013-04-06    10
#> # … with 90 more rows
…
